
{
  "header": {
    "reportVersion": 1,
    "event": "Allocation failed - JavaScript heap out of memory",
    "trigger": "FatalError",
    "filename": "report.20200227.232735.3852.0.001.json",
    "dumpEventTime": "2020-02-27T23:27:35Z",
    "dumpEventTimeStamp": "1582846055742",
    "processId": 3852,
    "cwd": "C:\\Users\\Altiliano Fonseca\\DatingApp\\DatingApp-SPA",
    "commandLine": [
      "C:\\Program Files\\nodejs\\node.exe",
      "C:\\Users\\Altiliano Fonseca\\DatingApp\\DatingApp-SPA\\node_modules\\jest-worker\\build\\workers\\processChild.js"
    ],
    "nodejsVersion": "v12.14.0",
    "wordSize": 64,
    "arch": "x64",
    "platform": "win32",
    "componentVersions": {
      "node": "12.14.0",
      "v8": "7.7.299.13-node.16",
      "uv": "1.33.1",
      "zlib": "1.2.11",
      "brotli": "1.0.7",
      "ares": "1.15.0",
      "modules": "72",
      "nghttp2": "1.39.2",
      "napi": "5",
      "llhttp": "1.1.4",
      "http_parser": "2.8.0",
      "openssl": "1.1.1d",
      "cldr": "35.1",
      "icu": "64.2",
      "tz": "2019c",
      "unicode": "12.1"
    },
    "release": {
      "name": "node",
      "lts": "Erbium",
      "headersUrl": "https://nodejs.org/download/release/v12.14.0/node-v12.14.0-headers.tar.gz",
      "sourceUrl": "https://nodejs.org/download/release/v12.14.0/node-v12.14.0.tar.gz",
      "libUrl": "https://nodejs.org/download/release/v12.14.0/win-x64/node.lib"
    },
    "osName": "Windows_NT",
    "osRelease": "10.0.18362",
    "osVersion": "Windows 10 Pro",
    "osMachine": "x86_64",
    "cpus": [
      {
        "model": "Intel(R) Core(TM) i5-8265U CPU @ 1.60GHz",
        "speed": 1800,
        "user": 6540890,
        "nice": 0,
        "sys": 6237671,
        "idle": 150714843,
        "irq": 1329765
      },
      {
        "model": "Intel(R) Core(TM) i5-8265U CPU @ 1.60GHz",
        "speed": 1800,
        "user": 3613109,
        "nice": 0,
        "sys": 3175625,
        "idle": 156704171,
        "irq": 413984
      },
      {
        "model": "Intel(R) Core(TM) i5-8265U CPU @ 1.60GHz",
        "speed": 1800,
        "user": 7839906,
        "nice": 0,
        "sys": 3984500,
        "idle": 151668500,
        "irq": 142421
      },
      {
        "model": "Intel(R) Core(TM) i5-8265U CPU @ 1.60GHz",
        "speed": 1800,
        "user": 4383468,
        "nice": 0,
        "sys": 2803421,
        "idle": 156306015,
        "irq": 121921
      },
      {
        "model": "Intel(R) Core(TM) i5-8265U CPU @ 1.60GHz",
        "speed": 1800,
        "user": 7600250,
        "nice": 0,
        "sys": 4073859,
        "idle": 151818796,
        "irq": 108578
      },
      {
        "model": "Intel(R) Core(TM) i5-8265U CPU @ 1.60GHz",
        "speed": 1800,
        "user": 4283296,
        "nice": 0,
        "sys": 1873312,
        "idle": 157336296,
        "irq": 80265
      },
      {
        "model": "Intel(R) Core(TM) i5-8265U CPU @ 1.60GHz",
        "speed": 1800,
        "user": 6440531,
        "nice": 0,
        "sys": 2678953,
        "idle": 154373406,
        "irq": 90484
      },
      {
        "model": "Intel(R) Core(TM) i5-8265U CPU @ 1.60GHz",
        "speed": 1800,
        "user": 6093953,
        "nice": 0,
        "sys": 2606406,
        "idle": 154792531,
        "irq": 62046
      }
    ],
    "networkInterfaces": [
      {
        "name": "VirtualBox Host-Only Network",
        "internal": false,
        "mac": "0a:00:27:00:00:26",
        "address": "fe80::65ad:891e:80c5:2137",
        "netmask": "ffff:ffff:ffff:ffff::",
        "family": "IPv6",
        "scopeid": 38
      },
      {
        "name": "VirtualBox Host-Only Network",
        "internal": false,
        "mac": "0a:00:27:00:00:26",
        "address": "192.168.56.1",
        "netmask": "255.255.255.0",
        "family": "IPv4"
      },
      {
        "name": "Wi-Fi",
        "internal": false,
        "mac": "d4:3b:04:e8:fc:e7",
        "address": "2001:818:e31d:f400:8f5:d8c9:96c:1a36",
        "netmask": "ffff:ffff:ffff:ffff::",
        "family": "IPv6",
        "scopeid": 0
      },
      {
        "name": "Wi-Fi",
        "internal": false,
        "mac": "d4:3b:04:e8:fc:e7",
        "address": "2001:818:e31d:f400:3181:b194:eeaf:f7e2",
        "netmask": "ffff:ffff:ffff:ffff:ffff:ffff:ffff:ffff",
        "family": "IPv6",
        "scopeid": 0
      },
      {
        "name": "Wi-Fi",
        "internal": false,
        "mac": "d4:3b:04:e8:fc:e7",
        "address": "fe80::8f5:d8c9:96c:1a36",
        "netmask": "ffff:ffff:ffff:ffff::",
        "family": "IPv6",
        "scopeid": 6
      },
      {
        "name": "Wi-Fi",
        "internal": false,
        "mac": "d4:3b:04:e8:fc:e7",
        "address": "192.168.1.180",
        "netmask": "255.255.255.0",
        "family": "IPv4"
      },
      {
        "name": "Loopback Pseudo-Interface 1",
        "internal": true,
        "mac": "00:00:00:00:00:00",
        "address": "::1",
        "netmask": "ffff:ffff:ffff:ffff:ffff:ffff:ffff:ffff",
        "family": "IPv6",
        "scopeid": 0
      },
      {
        "name": "Loopback Pseudo-Interface 1",
        "internal": true,
        "mac": "00:00:00:00:00:00",
        "address": "127.0.0.1",
        "netmask": "255.0.0.0",
        "family": "IPv4"
      }
    ],
    "host": "DESKTOP-5QOTHHV"
  },
  "javascriptStack": {
    "message": "No stack.",
    "stack": [
      "Unavailable."
    ]
  },
  "nativeStack": [
    {
      "pc": "0x00007ff672c71729",
      "symbol": "std::basic_ostream<char,std::char_traits<char> >::operator<<+10873"
    },
    {
      "pc": "0x00007ff672c75b4c",
      "symbol": "std::basic_ostream<char,std::char_traits<char> >::operator<<+28316"
    },
    {
      "pc": "0x00007ff672c74b08",
      "symbol": "std::basic_ostream<char,std::char_traits<char> >::operator<<+24152"
    },
    {
      "pc": "0x00007ff672d6369b",
      "symbol": "v8::base::CPU::has_sse+37723"
    },
    {
      "pc": "0x00007ff6735682de",
      "symbol": "v8::Isolate::ReportExternalAllocationLimitReached+94"
    },
    {
      "pc": "0x00007ff673550321",
      "symbol": "v8::SharedArrayBuffer::Externalize+833"
    },
    {
      "pc": "0x00007ff67341dbec",
      "symbol": "v8::internal::Heap::EphemeronKeyWriteBarrierFromCode+1436"
    },
    {
      "pc": "0x00007ff673428f90",
      "symbol": "v8::internal::Heap::ProtectUnprotectedMemoryChunks+1312"
    },
    {
      "pc": "0x00007ff673425ac4",
      "symbol": "v8::internal::Heap::PageFlagsAreConsistent+3204"
    },
    {
      "pc": "0x00007ff67341b353",
      "symbol": "v8::internal::Heap::CollectGarbage+1283"
    },
    {
      "pc": "0x00007ff673419b24",
      "symbol": "v8::internal::Heap::AddRetainedMap+2356"
    },
    {
      "pc": "0x00007ff67343adf5",
      "symbol": "v8::internal::Factory::NewFillerObject+53"
    },
    {
      "pc": "0x00007ff6731a6e19",
      "symbol": "v8::internal::interpreter::JumpTableTargetOffsets::iterator::operator=+4057"
    },
    {
      "pc": "0x00007ff67399404d",
      "symbol": "v8::internal::SetupIsolateDelegate::SetupHeap+567949"
    },
    {
      "pc": "0x00000104f31034e1",
      "symbol": ""
    }
  ],
  "javascriptHeap": {
    "totalMemory": 2151796736,
    "totalCommittedMemory": 2151796736,
    "usedMemory": 2133757224,
    "availableMemory": 48129888,
    "memoryLimit": 2197815296,
    "heapSpaces": {
      "read_only_space": {
        "memorySize": 262144,
        "committedMemory": 262144,
        "capacity": 261872,
        "used": 32296,
        "available": 229576
      },
      "new_space": {
        "memorySize": 2097152,
        "committedMemory": 2097152,
        "capacity": 1047488,
        "used": 213224,
        "available": 834264
      },
      "old_space": {
        "memorySize": 2046930944,
        "committedMemory": 2046930944,
        "capacity": 2031933592,
        "used": 2031933592,
        "available": 0
      },
      "code_space": {
        "memorySize": 1736704,
        "committedMemory": 1736704,
        "capacity": 1347744,
        "used": 1347744,
        "available": 0
      },
      "map_space": {
        "memorySize": 1314816,
        "committedMemory": 1314816,
        "capacity": 917840,
        "used": 917840,
        "available": 0
      },
      "large_object_space": {
        "memorySize": 99405824,
        "committedMemory": 99405824,
        "capacity": 99308976,
        "used": 99308976,
        "available": 0
      },
      "code_large_object_space": {
        "memorySize": 49152,
        "committedMemory": 49152,
        "capacity": 3552,
        "used": 3552,
        "available": 0
      },
      "new_large_object_space": {
        "memorySize": 0,
        "committedMemory": 0,
        "capacity": 1047488,
        "used": 0,
        "available": 1047488
      }
    }
  },
  "resourceUsage": {
    "userCpuSeconds": 264,
    "kernelCpuSeconds": 5.562,
    "cpuConsumptionPercent": 205.773,
    "maxRss": 2273898496,
    "pageFaults": {
      "IORequired": 1335975,
      "IONotRequired": 0
    },
    "fsActivity": {
      "reads": 891,
      "writes": 111
    }
  },
  "libuv": [
  ],
  "environmentVariables": {
    "ALLUSERSPROFILE": "C:\\ProgramData",
    "APPDATA": "C:\\Users\\Altiliano Fonseca\\AppData\\Roaming",
    "ChocolateyInstall": "C:\\ProgramData\\chocolatey",
    "ChocolateyLastPathUpdate": "132223956764178110",
    "COLORTERM": "truecolor",
    "CommonProgramFiles": "C:\\Program Files\\Common Files",
    "CommonProgramFiles(x86)": "C:\\Program Files (x86)\\Common Files",
    "CommonProgramW6432": "C:\\Program Files\\Common Files",
    "COMPUTERNAME": "DESKTOP-5QOTHHV",
    "ComSpec": "C:\\Windows\\system32\\cmd.exe",
    "DriverData": "C:\\Windows\\System32\\Drivers\\DriverData",
    "FORCE_COLOR": "1",
    "HOMEDRIVE": "C:",
    "HOMEPATH": "\\Users\\Altiliano Fonseca",
    "IntelliJ IDEA Community Edition": "C:\\Program Files\\JetBrains\\IntelliJ IDEA Community Edition 2019.3\\bin;",
    "JAVA_HOME": "C:\\Program Files\\Java\\jdk-13.0.1",
    "JEST_WORKER_ID": "1",
    "LANG": "pt_PT.UTF-8",
    "LOCALAPPDATA": "C:\\Users\\Altiliano Fonseca\\AppData\\Local",
    "LOGONSERVER": "\\\\DESKTOP-5QOTHHV",
    "NUMBER_OF_PROCESSORS": "8",
    "OneDrive": "C:\\Users\\Altiliano Fonseca\\OneDrive",
    "OS": "Windows_NT",
    "Path": "C:\\Python27\\;C:\\Python27\\Scripts;C:\\Program Files (x86)\\Common Files\\Oracle\\Java\\javapath;C:\\Windows\\system32;C:\\Windows;C:\\Windows\\System32\\Wbem;C:\\Windows\\System32\\WindowsPowerShell\\v1.0\\;C:\\Windows\\System32\\OpenSSH\\;C:\\Program Files\\Microsoft SQL Server\\130\\Tools\\Binn\\;C:\\Program Files\\Microsoft SQL Server\\Client SDK\\ODBC\\170\\Tools\\Binn\\;%JAVA_HOME%;C:\\Program Files\\Git\\cmd;C:\\Program Files\\dotnet\\;C:\\Program Files\\nodejs\\;C:\\ProgramData\\chocolatey\\bin;C:\\Users\\Altiliano Fonseca\\AppData\\Local\\Microsoft\\WindowsApps;C:\\Users\\Altiliano Fonseca\\AppData\\Local\\Programs\\Microsoft VS Code\\bin;C:\\Program Files\\JetBrains\\IntelliJ IDEA Community Edition 2019.3\\bin;C:\\Users\\Altiliano Fonseca\\AppData\\Roaming\\npm;C:\\Users\\Altiliano Fonseca\\.dotnet\\tools;C:\\Users\\Altiliano Fonseca\\.dotnet\\tools;",
    "PATHEXT": ".COM;.EXE;.BAT;.CMD;.VBS;.VBE;.JS;.JSE;.WSF;.WSH;.MSC;.CPL",
    "PROCESSOR_ARCHITECTURE": "AMD64",
    "PROCESSOR_IDENTIFIER": "Intel64 Family 6 Model 142 Stepping 11, GenuineIntel",
    "PROCESSOR_LEVEL": "6",
    "PROCESSOR_REVISION": "8e0b",
    "ProgramData": "C:\\ProgramData",
    "ProgramFiles": "C:\\Program Files",
    "ProgramFiles(x86)": "C:\\Program Files (x86)",
    "ProgramW6432": "C:\\Program Files",
    "PSModulePath": "C:\\Users\\Altiliano Fonseca\\Documents\\WindowsPowerShell\\Modules;C:\\Program Files\\WindowsPowerShell\\Modules;C:\\Windows\\system32\\WindowsPowerShell\\v1.0\\Modules",
    "PUBLIC": "C:\\Users\\Public",
    "SESSIONNAME": "Console",
    "SystemDrive": "C:",
    "SystemRoot": "C:\\Windows",
    "TEMP": "C:\\Users\\ALTILI~1\\AppData\\Local\\Temp",
    "TERM_PROGRAM": "vscode",
    "TERM_PROGRAM_VERSION": "1.42.1",
    "TMP": "C:\\Users\\ALTILI~1\\AppData\\Local\\Temp",
    "USERDOMAIN": "DESKTOP-5QOTHHV",
    "USERDOMAIN_ROAMINGPROFILE": "DESKTOP-5QOTHHV",
    "USERNAME": "Altiliano Fonseca",
    "USERPROFILE": "C:\\Users\\Altiliano Fonseca",
    "VBOX_MSI_INSTALL_PATH": "C:\\Program Files\\Oracle\\VirtualBox\\",
    "WEBPACK_DEV_SERVER": "true",
    "windir": "C:\\Windows"
  },
  "sharedObjects": [
    "C:\\Program Files\\nodejs\\node.exe",
    "C:\\Windows\\SYSTEM32\\ntdll.dll",
    "C:\\Windows\\System32\\KERNEL32.DLL",
    "C:\\Windows\\System32\\KERNELBASE.dll",
    "C:\\Windows\\System32\\WS2_32.dll",
    "C:\\Windows\\System32\\RPCRT4.dll",
    "C:\\Windows\\SYSTEM32\\dbghelp.dll",
    "C:\\Windows\\System32\\ADVAPI32.dll",
    "C:\\Windows\\System32\\ucrtbase.dll",
    "C:\\Windows\\System32\\msvcrt.dll",
    "C:\\Windows\\System32\\sechost.dll",
    "C:\\Windows\\System32\\USER32.dll",
    "C:\\Windows\\System32\\win32u.dll",
    "C:\\Windows\\System32\\GDI32.dll",
    "C:\\Windows\\System32\\gdi32full.dll",
    "C:\\Windows\\System32\\msvcp_win.dll",
    "C:\\Windows\\System32\\PSAPI.DLL",
    "C:\\Windows\\System32\\CRYPT32.dll",
    "C:\\Windows\\SYSTEM32\\IPHLPAPI.DLL",
    "C:\\Windows\\System32\\MSASN1.dll",
    "C:\\Windows\\System32\\bcrypt.dll",
    "C:\\Windows\\SYSTEM32\\USERENV.dll",
    "C:\\Windows\\System32\\profapi.dll",
    "C:\\Windows\\SYSTEM32\\WINMM.dll",
    "C:\\Windows\\SYSTEM32\\WINMMBASE.dll",
    "C:\\Windows\\System32\\cfgmgr32.dll",
    "C:\\Windows\\System32\\bcryptPrimitives.dll",
    "C:\\Windows\\System32\\IMM32.DLL",
    "C:\\Windows\\System32\\powrprof.dll",
    "C:\\Windows\\System32\\UMPDC.dll",
    "C:\\Windows\\SYSTEM32\\CRYPTBASE.DLL",
    "C:\\Windows\\system32\\uxtheme.dll",
    "C:\\Windows\\System32\\combase.dll",
    "C:\\Windows\\system32\\mswsock.dll",
    "C:\\Windows\\System32\\kernel.appcore.dll",
    "C:\\Windows\\System32\\NSI.dll",
    "C:\\Windows\\SYSTEM32\\dhcpcsvc6.DLL",
    "C:\\Windows\\SYSTEM32\\dhcpcsvc.DLL",
    "C:\\Windows\\SYSTEM32\\DNSAPI.dll",
    "C:\\Windows\\system32\\napinsp.dll",
    "C:\\Windows\\system32\\pnrpnsp.dll",
    "C:\\Windows\\System32\\winrnr.dll",
    "C:\\Windows\\system32\\NLAapi.dll",
    "C:\\Windows\\system32\\wshbth.dll"
  ]
}