﻿{
  "$schema": "http://json.schemastore.org/launchsettings.json",
  "iisSettings": {
    "windowsAuthentication": false,
    "anonymousAuthentication": true,
    "iisExpress": {
      "applicationUrl": "http://localhost:25833",
      "sslPort": 44310
    }
  },
  "profiles": {
    "Dev": {
      "commandName": "Project",
      "launchBrowser": true,
      "launchUrl": "https://localhos:5000",
      "environmentVariables": {
        "ASPNETCORE_ENVIRONMENT": "Development"
      }
    
    }
  }
}
